9
Initial config
A         0.000000000     0.000000000     0.000000000
A         0.000000000     1.290994449     0.000000000
A         0.000000000     2.581988897     0.000000000
A         1.290994449     0.000000000     0.000000000
A         1.290994449     1.290994449     0.000000000
A         1.290994449     2.581988897     0.000000000
A         2.581988897     0.000000000     0.000000000
B         2.581988897     1.290994449     0.000000000
B         2.581988897     2.581988897     0.000000000
